cpu.vcd
$date
	Wed Nov 16 22:18:22 2016
$end
$version
	Icarus Verilog
$end
$timescale
	1ps
$end
$scope module alucontrol $end
$var wire 2 ! ALUop [1:0] $end
$var wire 6 " instruction [5:0] $end
$var reg 3 # ALUcontrol [2:0] $end
$upscope $end
$scope module cputest $end
$var reg 1 $ clk $end
$scope module test $end
$var wire 32 % ALU_in [31:0] $end
$var wire 3 & ALUop [2:0] $end
$var wire 32 ' ALUresult [31:0] $end
$var wire 1 ( ALUsrc $end
$var wire 1 ) ALUzero $end
$var wire 1 * Branch $end
$var wire 2 + Jump [1:0] $end
$var wire 1 , MemRead $end
$var wire 1 - MemWrite $end
$var wire 2 . MemtoReg [1:0] $end
$var wire 2 / RegDst [1:0] $end
$var wire 1 0 RegWrite $end
$var wire 32 1 SEinst [31:0] $end
$var wire 32 2 addALUres [31:0] $end
$var wire 32 3 branch_out [31:0] $end
$var wire 1 4 clk $end
$var wire 32 5 datamem_readData [31:0] $end
$var wire 32 6 inst [31:0] $end
$var wire 32 7 pc4_out [31:0] $end
$var wire 32 8 pc_in [31:0] $end
$var wire 32 9 pc_out [31:0] $end
$var wire 32 : reg_readData1 [31:0] $end
$var wire 32 ; reg_readData2 [31:0] $end
$var wire 32 < writeData [31:0] $end
$var wire 5 = writeRegister [4:0] $end
$scope module cpuPC $end
$var wire 1 4 clk $end
$var wire 32 > pc_in [31:0] $end
$var reg 32 ? pc_out [31:0] $end
$upscope $end
$scope module cpuIM $end
$var wire 32 @ instruction [31:0] $end
$var wire 32 A read_address [31:0] $end
$upscope $end
$scope module cpuControl $end
$var wire 1 B clk $end
$var wire 6 C instruction [5:0] $end
$var wire 4 D instruction_funct [3:0] $end
$var reg 3 E ALUOp [2:0] $end
$var reg 1 F ALUSrc $end
$var reg 1 G Branch $end
$var reg 2 H Jump [1:0] $end
$var reg 1 I MemRead $end
$var reg 1 J MemWrite $end
$var reg 2 K MemtoReg [1:0] $end
$var reg 2 L RegDst [1:0] $end
$var reg 1 M RegWrite $end
$upscope $end
$scope module mux5_inst_reg $end
$var wire 5 N in0 [4:0] $end
$var wire 5 O in1 [4:0] $end
$var wire 5 P in2 [4:0] $end
$var wire 2 Q sel [1:0] $end
$var reg 5 R out [4:0] $end
$scope begin MUX $end
$upscope $end
$upscope $end
$scope module cpuRegister $end
$var wire 1 4 clk $end
$var wire 32 S ra [31:0] $end
$var wire 5 T ra_addr [4:0] $end
$var wire 32 U rb [31:0] $end
$var wire 5 V rb_addr [4:0] $end
$var wire 32 W wd [31:0] $end
$var wire 5 X wd_addr [4:0] $end
$var wire 1 0 wrEn $end
$upscope $end
$scope module cpuSE $end
$var wire 16 Y seIn [15:0] $end
$var wire 32 Z seOut [31:0] $end
$scope begin gen1[16] $end
$upscope $end
$scope begin gen1[17] $end
$upscope $end
$scope begin gen1[18] $end
$upscope $end
$scope begin gen1[19] $end
$upscope $end
$scope begin gen1[20] $end
$upscope $end
$scope begin gen1[21] $end
$upscope $end
$scope begin gen1[22] $end
$upscope $end
$scope begin gen1[23] $end
$upscope $end
$scope begin gen1[24] $end
$upscope $end
$scope begin gen1[25] $end
$upscope $end
$scope begin gen1[26] $end
$upscope $end
$scope begin gen1[27] $end
$upscope $end
$scope begin gen1[28] $end
$upscope $end
$scope begin gen1[29] $end
$upscope $end
$scope begin gen1[30] $end
$upscope $end
$scope begin gen1[31] $end
$upscope $end
$upscope $end
$scope module mux_reg_alu $end
$var wire 32 [ in0 [31:0] $end
$var wire 32 \ in1 [31:0] $end
$var wire 32 ] out [31:0] $end
$var wire 1 ( sel $end
$upscope $end
$scope module cpuALU $end
$var wire 32 ^ a [31:0] $end
$var wire 32 _ aluRes [31:0] $end
$var wire 3 ` alucontrol [2:0] $end
$var wire 32 a b [31:0] $end
$var wire 1 ) zero $end
$var reg 32 b aluRes_reg [31:0] $end
$upscope $end
$scope module cpu_dm $end
$var wire 1 , MemRead $end
$var wire 1 - MemWrite $end
$var wire 32 c address [31:0] $end
$var wire 1 4 clk $end
$var wire 32 d readData [31:0] $end
$var wire 32 e writeData [31:0] $end
$var reg 32 f readData_reg [31:0] $end
$upscope $end
$scope module cpu_add_pc $end
$var wire 32 g in [31:0] $end
$var wire 32 h out [31:0] $end
$upscope $end
$scope module mux_datamem $end
$var wire 32 i in0 [31:0] $end
$var wire 32 j in1 [31:0] $end
$var wire 32 k in2 [31:0] $end
$var wire 2 l sel [1:0] $end
$var reg 32 m out [31:0] $end
$scope begin MUX $end
$upscope $end
$upscope $end
$scope module cpu_add_alu $end
$var wire 32 n in0 [31:0] $end
$var wire 32 o in1 [31:0] $end
$var wire 32 p out [31:0] $end
$upscope $end
$scope module mux_branch $end
$var wire 32 q in0 [31:0] $end
$var wire 32 r in1 [31:0] $end
$var wire 32 s out [31:0] $end
$var wire 1 t sel $end
$upscope $end
$scope module mux_jump $end
$var wire 32 u in0 [31:0] $end
$var wire 32 v in1 [31:0] $end
$var wire 32 w in2 [31:0] $end
$var wire 2 x sel [1:0] $end
$var reg 32 y out [31:0] $end
$scope begin MUX $end
$upscope $end
$upscope $end
$upscope $end
$upscope $end
$enddefinitions $end
#0
$dumpvars
b100 y
b0 x
b0 w
b11101001111111111110000 v
b100 u
0t
b100 s
b1111111111110100 r
b100 q
b1111111111110100 p
b11111111111100 o
b100 n
b11111111111100 m
b0 l
b100 k
bx j
b11111111111100 i
b100 h
b0 g
bx f
bx e
bx d
b11111111111100 c
b11111111111100 b
b11111111111100 a
b100 `
b11111111111100 _
b0 ^
b11111111111100 ]
b11111111111100 \
bx [
b11111111111100 Z
b11111111111100 Y
b11101 X
b11111111111100 W
b11101 V
bx U
b0 T
b0 S
b11101 R
b1 Q
b11111 P
b11101 O
b111 N
1M
b1 L
b0 K
0J
0I
b0 H
0G
1F
b100 E
b1100 D
b1110 C
zB
b0 A
b111000000111010011111111111100 @
b0 ?
b100 >
b11101 =
b11111111111100 <
bx ;
b0 :
b0 9
b100 8
b100 7
b111000000111010011111111111100 6
bx 5
14
b100 3
b1111111111110100 2
b11111111111100 1
10
b1 /
b0 .
0-
0,
b0 +
0*
0)
1(
b11111111111100 '
b100 &
b11111111111100 %
1$
b0 #
bz "
bz !
$end
#100000
0$
04
#200000
b100 m
b100 <
b100 W
b100 b
b100 '
b100 _
b100 c
b100 i
b1000 y
b1000 8
b1000 >
b100 %
b100 ]
b100 a
b1000 R
b1000 =
b1000 X
b1000 3
b1000 s
b1000 u
b1000000000000000010000 v
b100 1
b100 Z
b100 \
b100 o
b100 Y
b1000 V
b1000 O
b0 N
b100 D
b11000 2
b11000 p
b11000 r
b1000 7
b1000 h
b1000 k
b1000 n
b1000 q
b100 ?
b111000000010000000000000000100 6
b111000000010000000000000000100 @
b100 9
b100 A
b100 g
bx ;
bx U
bx [
bx e
1$
14
#300000
0$
04
#400000
b1 m
b1 <
b1 W
b1 b
b1 '
b1 _
b1 c
b1 i
b1100 y
b1100 8
b1100 >
b1 %
b1 ]
b1 a
b1001 R
b1001 =
b1001 X
b1100 3
b1100 s
b1100 u
b1001000000000000000100 v
b1 1
b1 Z
b1 \
b1 o
b1 Y
b1001 V
b1001 O
b1 D
b10000 2
b10000 p
b10000 r
b1100 7
b1100 h
b1100 k
b1100 n
b1100 q
b1000 ?
b111000000010010000000000000001 6
b111000000010010000000000000001 @
b1000 9
b1000 A
b1000 g
bx ;
bx U
bx [
bx e
1$
14
#500000
0$
04
#600000
b101 m
b101 <
b101 W
b1010 R
b1010 =
b1010 X
b101 b
b101 '
b101 _
b101 c
b101 i
b1 E
b1 &
b1 `
0F
0(
b0 L
b0 /
b0 Q
b1 %
b1 ]
b1 a
b10000 y
b10000 8
b10000 >
b10000 3
b10000 s
b10000 u
b100001001010100000010001000 v
b101000000100010 1
b101000000100010 Z
b101000000100010 \
b101000000100010 o
b101000000100010 Y
b1000 T
b100 :
b100 S
b100 ^
b100 w
b1010 N
b10 D
b0 C
b10100000010011000 2
b10100000010011000 p
b10100000010011000 r
b10000 7
b10000 h
b10000 k
b10000 n
b10000 q
b1100 ?
b1000010010101000000100010 6
b1000010010101000000100010 @
b1100 9
b1100 A
b1100 g
b1 ;
b1 U
b1 [
b1 e
1$
14
#700000
0$
04
#800000
b10 H
b10 +
b10 x
b100 y
b100 8
b100 >
b1011 R
b1011 =
b1011 X
b10100 3
b10100 s
b10100 u
b100001001010110000010000000 v
b101100000100000 1
b101100000100000 Z
b101100000100000 \
b101100000100000 o
b101100000100000 Y
b1011 N
b0 D
b10110000010010100 2
b10110000010010100 p
b10110000010010100 r
b10100 7
b10100 h
b10100 k
b10100 n
b10100 q
b10000 ?
b1000010010101100000100000 6
b1000010010101100000100000 @
b10000 9
b10000 A
b10000 g
1$
14
#900000
0$
04
#1000000
b100 m
b100 <
b100 W
b100 b
b100 '
b100 _
b100 c
b100 i
b100 E
b100 &
b100 `
b0 H
b0 +
b0 x
1F
1(
b1 L
b1 /
b1 Q
b100 %
b100 ]
b100 a
b1000 y
b1000 8
b1000 >
b1000 R
b1000 =
b1000 X
b1000 3
b1000 s
b1000 u
b1000000000000000010000 v
b100 1
b100 Z
b100 \
b100 o
b100 Y
b1000 V
b100 ;
b100 U
b100 [
b100 e
b0 T
b0 :
b0 S
b0 ^
b0 w
b1000 O
b0 N
b100 D
b1110 C
b11000 2
b11000 p
b11000 r
b1000 7
b1000 h
b1000 k
b1000 n
b1000 q
b100 ?
b111000000010000000000000000100 6
b111000000010000000000000000100 @
b100 9
b100 A
b100 g
1$
14
#1100000
0$
04
#1200000
b1 m
b1 <
b1 W
b1 b
b1 '
b1 _
b1 c
b1 i
b1100 y
b1100 8
b1100 >
b1 %
b1 ]
b1 a
b1001 R
b1001 =
b1001 X
b1100 3
b1100 s
b1100 u
b1001000000000000000100 v
b1 1
b1 Z
b1 \
b1 o
b1 Y
b1001 V
b1 ;
b1 U
b1 [
b1 e
b1001 O
b1 D
b10000 2
b10000 p
b10000 r
b1100 7
b1100 h
b1100 k
b1100 n
b1100 q
b1000 ?
b111000000010010000000000000001 6
b111000000010010000000000000001 @
b1000 9
b1000 A
b1000 g
1$
14
#1300000
0$
04
#1400000
b101 m
b101 <
b101 W
b1010 R
b1010 =
b1010 X
b101 b
b101 '
b101 _
b101 c
b101 i
b1 E
b1 &
b1 `
0F
0(
b0 L
b0 /
b0 Q
b1 %
b1 ]
b1 a
b10000 y
b10000 8
b10000 >
b10000 3
b10000 s
b10000 u
b100001001010100000010001000 v
b101000000100010 1
b101000000100010 Z
b101000000100010 \
b101000000100010 o
b101000000100010 Y
b1000 T
b100 :
b100 S
b100 ^
b100 w
b1010 N
b10 D
b0 C
b10100000010011000 2
b10100000010011000 p
b10100000010011000 r
b10000 7
b10000 h
b10000 k
b10000 n
b10000 q
b1100 ?
b1000010010101000000100010 6
b1000010010101000000100010 @
b1100 9
b1100 A
b1100 g
1$
14
#1500000
0$
04
#1600000
b10 H
b10 +
b10 x
b100 y
b100 8
b100 >
b1011 R
b1011 =
b1011 X
b10100 3
b10100 s
b10100 u
b100001001010110000010000000 v
b101100000100000 1
b101100000100000 Z
b101100000100000 \
b101100000100000 o
b101100000100000 Y
b1011 N
b0 D
b10110000010010100 2
b10110000010010100 p
b10110000010010100 r
b10100 7
b10100 h
b10100 k
b10100 n
b10100 q
b10000 ?
b1000010010101100000100000 6
b1000010010101100000100000 @
b10000 9
b10000 A
b10000 g
1$
14
#1700000
0$
04
#1800000
b100 m
b100 <
b100 W
b100 b
b100 '
b100 _
b100 c
b100 i
b100 E
b100 &
b100 `
b0 H
b0 +
b0 x
1F
1(
b1 L
b1 /
b1 Q
b100 %
b100 ]
b100 a
b1000 y
b1000 8
b1000 >
b1000 R
b1000 =
b1000 X
b1000 3
b1000 s
b1000 u
b1000000000000000010000 v
b100 1
b100 Z
b100 \
b100 o
b100 Y
b1000 V
b100 ;
b100 U
b100 [
b100 e
b0 T
b0 :
b0 S
b0 ^
b0 w
b1000 O
b0 N
b100 D
b1110 C
b11000 2
b11000 p
b11000 r
b1000 7
b1000 h
b1000 k
b1000 n
b1000 q
b100 ?
b111000000010000000000000000100 6
b111000000010000000000000000100 @
b100 9
b100 A
b100 g
1$
14
#1900000
0$
04
#2000000
b1 m
b1 <
b1 W
b1 b
b1 '
b1 _
b1 c
b1 i
b1100 y
b1100 8
b1100 >
b1 %
b1 ]
b1 a
b1001 R
b1001 =
b1001 X
b1100 3
b1100 s
b1100 u
b1001000000000000000100 v
b1 1
b1 Z
b1 \
b1 o
b1 Y
b1001 V
b1 ;
b1 U
b1 [
b1 e
b1001 O
b1 D
b10000 2
b10000 p
b10000 r
b1100 7
b1100 h
b1100 k
b1100 n
b1100 q
b1000 ?
b111000000010010000000000000001 6
b111000000010010000000000000001 @
b1000 9
b1000 A
b1000 g
1$
14
#2100000
0$
04
#2200000
b101 m
b101 <
b101 W
b1010 R
b1010 =
b1010 X
b101 b
b101 '
b101 _
b101 c
b101 i
b1 E
b1 &
b1 `
0F
0(
b0 L
b0 /
b0 Q
b1 %
b1 ]
b1 a
b10000 y
b10000 8
b10000 >
b10000 3
b10000 s
b10000 u
b100001001010100000010001000 v
b101000000100010 1
b101000000100010 Z
b101000000100010 \
b101000000100010 o
b101000000100010 Y
b1000 T
b100 :
b100 S
b100 ^
b100 w
b1010 N
b10 D
b0 C
b10100000010011000 2
b10100000010011000 p
b10100000010011000 r
b10000 7
b10000 h
b10000 k
b10000 n
b10000 q
b1100 ?
b1000010010101000000100010 6
b1000010010101000000100010 @
b1100 9
b1100 A
b1100 g
1$
14
#2300000
0$
04
#2400000
b10 H
b10 +
b10 x
b100 y
b100 8
b100 >
b1011 R
b1011 =
b1011 X
b10100 3
b10100 s
b10100 u
b100001001010110000010000000 v
b101100000100000 1
b101100000100000 Z
b101100000100000 \
b101100000100000 o
b101100000100000 Y
b1011 N
b0 D
b10110000010010100 2
b10110000010010100 p
b10110000010010100 r
b10100 7
b10100 h
b10100 k
b10100 n
b10100 q
b10000 ?
b1000010010101100000100000 6
b1000010010101100000100000 @
b10000 9
b10000 A
b10000 g
1$
14
#2500000
0$
04
#2600000
b100 m
b100 <
b100 W
b100 b
b100 '
b100 _
b100 c
b100 i
b100 E
b100 &
b100 `
b0 H
b0 +
b0 x
1F
1(
b1 L
b1 /
b1 Q
b100 %
b100 ]
b100 a
b1000 y
b1000 8
b1000 >
b1000 R
b1000 =
b1000 X
b1000 3
b1000 s
b1000 u
b1000000000000000010000 v
b100 1
b100 Z
b100 \
b100 o
b100 Y
b1000 V
b100 ;
b100 U
b100 [
b100 e
b0 T
b0 :
b0 S
b0 ^
b0 w
b1000 O
b0 N
b100 D
b1110 C
b11000 2
b11000 p
b11000 r
b1000 7
b1000 h
b1000 k
b1000 n
b1000 q
b100 ?
b111000000010000000000000000100 6
b111000000010000000000000000100 @
b100 9
b100 A
b100 g
1$
14
#2700000
0$
04
#2800000
b1 m
b1 <
b1 W
b1 b
b1 '
b1 _
b1 c
b1 i
b1100 y
b1100 8
b1100 >
b1 %
b1 ]
b1 a
b1001 R
b1001 =
b1001 X
b1100 3
b1100 s
b1100 u
b1001000000000000000100 v
b1 1
b1 Z
b1 \
b1 o
b1 Y
b1001 V
b1 ;
b1 U
b1 [
b1 e
b1001 O
b1 D
b10000 2
b10000 p
b10000 r
b1100 7
b1100 h
b1100 k
b1100 n
b1100 q
b1000 ?
b111000000010010000000000000001 6
b111000000010010000000000000001 @
b1000 9
b1000 A
b1000 g
1$
14
#2900000
0$
04
#3000000
b101 m
b101 <
b101 W
b1010 R
b1010 =
b1010 X
b101 b
b101 '
b101 _
b101 c
b101 i
b1 E
b1 &
b1 `
0F
0(
b0 L
b0 /
b0 Q
b1 %
b1 ]
b1 a
b10000 y
b10000 8
b10000 >
b10000 3
b10000 s
b10000 u
b100001001010100000010001000 v
b101000000100010 1
b101000000100010 Z
b101000000100010 \
b101000000100010 o
b101000000100010 Y
b1000 T
b100 :
b100 S
b100 ^
b100 w
b1010 N
b10 D
b0 C
b10100000010011000 2
b10100000010011000 p
b10100000010011000 r
b10000 7
b10000 h
b10000 k
b10000 n
b10000 q
b1100 ?
b1000010010101000000100010 6
b1000010010101000000100010 @
b1100 9
b1100 A
b1100 g
1$
14
#3100000
0$
04
#3200000
b10 H
b10 +
b10 x
b100 y
b100 8
b100 >
b1011 R
b1011 =
b1011 X
b10100 3
b10100 s
b10100 u
b100001001010110000010000000 v
b101100000100000 1
b101100000100000 Z
b101100000100000 \
b101100000100000 o
b101100000100000 Y
b1011 N
b0 D
b10110000010010100 2
b10110000010010100 p
b10110000010010100 r
b10100 7
b10100 h
b10100 k
b10100 n
b10100 q
b10000 ?
b1000010010101100000100000 6
b1000010010101100000100000 @
b10000 9
b10000 A
b10000 g
1$
14
#3300000
0$
04
#3400000
b100 m
b100 <
b100 W
b100 b
b100 '
b100 _
b100 c
b100 i
b100 E
b100 &
b100 `
b0 H
b0 +
b0 x
1F
1(
b1 L
b1 /
b1 Q
b100 %
b100 ]
b100 a
b1000 y
b1000 8
b1000 >
b1000 R
b1000 =
b1000 X
b1000 3
b1000 s
b1000 u
b1000000000000000010000 v
b100 1
b100 Z
b100 \
b100 o
b100 Y
b1000 V
b100 ;
b100 U
b100 [
b100 e
b0 T
b0 :
b0 S
b0 ^
b0 w
b1000 O
b0 N
b100 D
b1110 C
b11000 2
b11000 p
b11000 r
b1000 7
b1000 h
b1000 k
b1000 n
b1000 q
b100 ?
b111000000010000000000000000100 6
b111000000010000000000000000100 @
b100 9
b100 A
b100 g
1$
14
#3500000
0$
04
#3600000
b1 m
b1 <
b1 W
b1 b
b1 '
b1 _
b1 c
b1 i
b1100 y
b1100 8
b1100 >
b1 %
b1 ]
b1 a
b1001 R
b1001 =
b1001 X
b1100 3
b1100 s
b1100 u
b1001000000000000000100 v
b1 1
b1 Z
b1 \
b1 o
b1 Y
b1001 V
b1 ;
b1 U
b1 [
b1 e
b1001 O
b1 D
b10000 2
b10000 p
b10000 r
b1100 7
b1100 h
b1100 k
b1100 n
b1100 q
b1000 ?
b111000000010010000000000000001 6
b111000000010010000000000000001 @
b1000 9
b1000 A
b1000 g
1$
14
#3700000
0$
04
#3800000
b101 m
b101 <
b101 W
b1010 R
b1010 =
b1010 X
b101 b
b101 '
b101 _
b101 c
b101 i
b1 E
b1 &
b1 `
0F
0(
b0 L
b0 /
b0 Q
b1 %
b1 ]
b1 a
b10000 y
b10000 8
b10000 >
b10000 3
b10000 s
b10000 u
b100001001010100000010001000 v
b101000000100010 1
b101000000100010 Z
b101000000100010 \
b101000000100010 o
b101000000100010 Y
b1000 T
b100 :
b100 S
b100 ^
b100 w
b1010 N
b10 D
b0 C
b10100000010011000 2
b10100000010011000 p
b10100000010011000 r
b10000 7
b10000 h
b10000 k
b10000 n
b10000 q
b1100 ?
b1000010010101000000100010 6
b1000010010101000000100010 @
b1100 9
b1100 A
b1100 g
1$
14
#3900000
0$
04
#4000000
b10 H
b10 +
b10 x
b100 y
b100 8
b100 >
b1011 R
b1011 =
b1011 X
b10100 3
b10100 s
b10100 u
b100001001010110000010000000 v
b101100000100000 1
b101100000100000 Z
b101100000100000 \
b101100000100000 o
b101100000100000 Y
b1011 N
b0 D
b10110000010010100 2
b10110000010010100 p
b10110000010010100 r
b10100 7
b10100 h
b10100 k
b10100 n
b10100 q
b10000 ?
b1000010010101100000100000 6
b1000010010101100000100000 @
b10000 9
b10000 A
b10000 g
1$
14
#4100000
0$
04
#4200000
b100 m
b100 <
b100 W
b100 b
b100 '
b100 _
b100 c
b100 i
b100 E
b100 &
b100 `
b0 H
b0 +
b0 x
1F
1(
b1 L
b1 /
b1 Q
b100 %
b100 ]
b100 a
b1000 y
b1000 8
b1000 >
b1000 R
b1000 =
b1000 X
b1000 3
b1000 s
b1000 u
b1000000000000000010000 v
b100 1
b100 Z
b100 \
b100 o
b100 Y
b1000 V
b100 ;
b100 U
b100 [
b100 e
b0 T
b0 :
b0 S
b0 ^
b0 w
b1000 O
b0 N
b100 D
b1110 C
b11000 2
b11000 p
b11000 r
b1000 7
b1000 h
b1000 k
b1000 n
b1000 q
b100 ?
b111000000010000000000000000100 6
b111000000010000000000000000100 @
b100 9
b100 A
b100 g
1$
14
#4300000
0$
04
#4400000
b1 m
b1 <
b1 W
b1 b
b1 '
b1 _
b1 c
b1 i
b1100 y
b1100 8
b1100 >
b1 %
b1 ]
b1 a
b1001 R
b1001 =
b1001 X
b1100 3
b1100 s
b1100 u
b1001000000000000000100 v
b1 1
b1 Z
b1 \
b1 o
b1 Y
b1001 V
b1 ;
b1 U
b1 [
b1 e
b1001 O
b1 D
b10000 2
b10000 p
b10000 r
b1100 7
b1100 h
b1100 k
b1100 n
b1100 q
b1000 ?
b111000000010010000000000000001 6
b111000000010010000000000000001 @
b1000 9
b1000 A
b1000 g
1$
14
#4500000
0$
04
#4600000
b101 m
b101 <
b101 W
b1010 R
b1010 =
b1010 X
b101 b
b101 '
b101 _
b101 c
b101 i
b1 E
b1 &
b1 `
0F
0(
b0 L
b0 /
b0 Q
b1 %
b1 ]
b1 a
b10000 y
b10000 8
b10000 >
b10000 3
b10000 s
b10000 u
b100001001010100000010001000 v
b101000000100010 1
b101000000100010 Z
b101000000100010 \
b101000000100010 o
b101000000100010 Y
b1000 T
b100 :
b100 S
b100 ^
b100 w
b1010 N
b10 D
b0 C
b10100000010011000 2
b10100000010011000 p
b10100000010011000 r
b10000 7
b10000 h
b10000 k
b10000 n
b10000 q
b1100 ?
b1000010010101000000100010 6
b1000010010101000000100010 @
b1100 9
b1100 A
b1100 g
1$
14
#4700000
0$
04
#4800000
b10 H
b10 +
b10 x
b100 y
b100 8
b100 >
b1011 R
b1011 =
b1011 X
b10100 3
b10100 s
b10100 u
b100001001010110000010000000 v
b101100000100000 1
b101100000100000 Z
b101100000100000 \
b101100000100000 o
b101100000100000 Y
b1011 N
b0 D
b10110000010010100 2
b10110000010010100 p
b10110000010010100 r
b10100 7
b10100 h
b10100 k
b10100 n
b10100 q
b10000 ?
b1000010010101100000100000 6
b1000010010101100000100000 @
b10000 9
b10000 A
b10000 g
1$
14
#4900000
0$
04
#5000000
b100 m
b100 <
b100 W
b100 b
b100 '
b100 _
b100 c
b100 i
b100 E
b100 &
b100 `
b0 H
b0 +
b0 x
1F
1(
b1 L
b1 /
b1 Q
b100 %
b100 ]
b100 a
b1000 y
b1000 8
b1000 >
b1000 R
b1000 =
b1000 X
b1000 3
b1000 s
b1000 u
b1000000000000000010000 v
b100 1
b100 Z
b100 \
b100 o
b100 Y
b1000 V
b100 ;
b100 U
b100 [
b100 e
b0 T
b0 :
b0 S
b0 ^
b0 w
b1000 O
b0 N
b100 D
b1110 C
b11000 2
b11000 p
b11000 r
b1000 7
b1000 h
b1000 k
b1000 n
b1000 q
b100 ?
b111000000010000000000000000100 6
b111000000010000000000000000100 @
b100 9
b100 A
b100 g
1$
14
