cpu.vcd
$date
	Thu Nov 17 19:03:47 2016
$end
$version
	Icarus Verilog
$end
$timescale
	1ps
$end
$scope module alucontrol $end
$var wire 2 ! ALUop [1:0] $end
$var wire 6 " instruction [5:0] $end
$var reg 3 # ALUcontrol [2:0] $end
$upscope $end
$scope module cputest $end
$var reg 1 $ clk $end
$scope module test $end
$var wire 32 % ALU_in [31:0] $end
$var wire 3 & ALUop [2:0] $end
$var wire 32 ' ALUresult [31:0] $end
$var wire 1 ( ALUsrc $end
$var wire 1 ) ALUzero $end
$var wire 1 * Branch $end
$var wire 2 + Jump [1:0] $end
$var wire 1 , MemRead $end
$var wire 1 - MemWrite $end
$var wire 2 . MemtoReg [1:0] $end
$var wire 2 / RegDst [1:0] $end
$var wire 1 0 RegWrite $end
$var wire 32 1 SEinst [31:0] $end
$var wire 32 2 addALUres [31:0] $end
$var wire 32 3 branch_out [31:0] $end
$var wire 1 4 clk $end
$var wire 32 5 datamem_readData [31:0] $end
$var wire 32 6 inst [31:0] $end
$var wire 32 7 pc4_out [31:0] $end
$var wire 32 8 pc_in [31:0] $end
$var wire 32 9 pc_out [31:0] $end
$var wire 32 : reg_readData1 [31:0] $end
$var wire 32 ; reg_readData2 [31:0] $end
$var wire 32 < writeData [31:0] $end
$var wire 5 = writeRegister [4:0] $end
$scope module cpuPC $end
$var wire 1 4 clk $end
$var wire 32 > pc_in [31:0] $end
$var reg 32 ? pc_out [31:0] $end
$upscope $end
$scope module cpuIM $end
$var wire 32 @ instruction [31:0] $end
$var wire 32 A read_address [31:0] $end
$upscope $end
$scope module cpuControl $end
$var wire 1 B clk $end
$var wire 6 C instruction [5:0] $end
$var wire 6 D instruction_funct [5:0] $end
$var reg 3 E ALUOp [2:0] $end
$var reg 1 F ALUSrc $end
$var reg 1 G Branch $end
$var reg 2 H Jump [1:0] $end
$var reg 1 I MemRead $end
$var reg 1 J MemWrite $end
$var reg 2 K MemtoReg [1:0] $end
$var reg 2 L RegDst [1:0] $end
$var reg 1 M RegWrite $end
$upscope $end
$scope module mux5_inst_reg $end
$var wire 5 N in0 [4:0] $end
$var wire 5 O in1 [4:0] $end
$var wire 5 P in2 [4:0] $end
$var wire 2 Q sel [1:0] $end
$var reg 5 R out [4:0] $end
$scope begin MUX $end
$upscope $end
$upscope $end
$scope module cpuRegister $end
$var wire 1 4 clk $end
$var wire 32 S ra [31:0] $end
$var wire 5 T ra_addr [4:0] $end
$var wire 32 U rb [31:0] $end
$var wire 5 V rb_addr [4:0] $end
$var wire 32 W wd [31:0] $end
$var wire 5 X wd_addr [4:0] $end
$var wire 1 0 wrEn $end
$upscope $end
$scope module cpuSE $end
$var wire 16 Y seIn [15:0] $end
$var wire 32 Z seOut [31:0] $end
$scope begin gen1[16] $end
$upscope $end
$scope begin gen1[17] $end
$upscope $end
$scope begin gen1[18] $end
$upscope $end
$scope begin gen1[19] $end
$upscope $end
$scope begin gen1[20] $end
$upscope $end
$scope begin gen1[21] $end
$upscope $end
$scope begin gen1[22] $end
$upscope $end
$scope begin gen1[23] $end
$upscope $end
$scope begin gen1[24] $end
$upscope $end
$scope begin gen1[25] $end
$upscope $end
$scope begin gen1[26] $end
$upscope $end
$scope begin gen1[27] $end
$upscope $end
$scope begin gen1[28] $end
$upscope $end
$scope begin gen1[29] $end
$upscope $end
$scope begin gen1[30] $end
$upscope $end
$scope begin gen1[31] $end
$upscope $end
$upscope $end
$scope module mux_reg_alu $end
$var wire 32 [ in0 [31:0] $end
$var wire 32 \ in1 [31:0] $end
$var wire 32 ] out [31:0] $end
$var wire 1 ( sel $end
$upscope $end
$scope module cpuALU $end
$var wire 32 ^ a [31:0] $end
$var wire 32 _ aluRes [31:0] $end
$var wire 3 ` alucontrol [2:0] $end
$var wire 32 a b [31:0] $end
$var wire 1 ) zero $end
$var reg 32 b aluRes_reg [31:0] $end
$upscope $end
$scope module cpu_dm $end
$var wire 1 , MemRead $end
$var wire 1 - MemWrite $end
$var wire 32 c address [31:0] $end
$var wire 1 4 clk $end
$var wire 32 d readData [31:0] $end
$var wire 32 e writeData [31:0] $end
$var reg 32 f readData_reg [31:0] $end
$upscope $end
$scope module cpu_add_pc $end
$var wire 32 g in [31:0] $end
$var wire 32 h out [31:0] $end
$upscope $end
$scope module mux_datamem $end
$var wire 32 i in0 [31:0] $end
$var wire 32 j in1 [31:0] $end
$var wire 32 k in2 [31:0] $end
$var wire 2 l sel [1:0] $end
$var reg 32 m out [31:0] $end
$scope begin MUX $end
$upscope $end
$upscope $end
$scope module cpu_add_alu $end
$var wire 32 n in0 [31:0] $end
$var wire 32 o in1 [31:0] $end
$var wire 32 p out [31:0] $end
$upscope $end
$scope module mux_branch $end
$var wire 32 q in0 [31:0] $end
$var wire 32 r in1 [31:0] $end
$var wire 32 s out [31:0] $end
$var wire 1 t sel $end
$upscope $end
$scope module mux_jump $end
$var wire 32 u in0 [31:0] $end
$var wire 32 v in1 [31:0] $end
$var wire 32 w in2 [31:0] $end
$var wire 2 x sel [1:0] $end
$var reg 32 y out [31:0] $end
$scope begin MUX $end
$upscope $end
$upscope $end
$upscope $end
$upscope $end
$enddefinitions $end
#0
$dumpvars
b100 y
b0 x
b0 w
b11101001111111111110000 v
b100 u
0t
b100 s
b1111111111110100 r
b100 q
b1111111111110100 p
b11111111111100 o
b100 n
b11111111111100 m
b0 l
b100 k
bx j
b11111111111100 i
b100 h
b0 g
bx f
bx e
bx d
b11111111111100 c
b11111111111100 b
b11111111111100 a
b100 `
b11111111111100 _
b0 ^
b11111111111100 ]
b11111111111100 \
bx [
b11111111111100 Z
b11111111111100 Y
b11101 X
b11111111111100 W
b11101 V
bx U
b0 T
b0 S
b11101 R
b1 Q
b11111 P
b11101 O
b111 N
1M
b1 L
b0 K
0J
0I
b0 H
0G
1F
b100 E
b111100 D
b1110 C
zB
b0 A
b111000000111010011111111111100 @
b0 ?
b100 >
b11101 =
b11111111111100 <
bx ;
b0 :
b0 9
b100 8
b100 7
b111000000111010011111111111100 6
bx 5
04
b100 3
b1111111111110100 2
b11111111111100 1
10
b1 /
b0 .
0-
0,
b0 +
0*
0)
1(
b11111111111100 '
b100 &
b11111111111100 %
0$
b0 #
bz "
bz !
$end
#100000
b100 m
b100 <
b100 W
b100 b
b100 '
b100 _
b100 c
b100 i
b100 %
b100 ]
b100 a
b1000 R
b1000 =
b1000 X
b1000 y
b1000 8
b1000 >
b1000000000000000010000 v
b100 1
b100 Z
b100 \
b100 o
b100 Y
b1000 V
b1000 O
b0 N
b100 D
b1000 3
b1000 s
b1000 u
b111000000010000000000000000100 6
b111000000010000000000000000100 @
b11000 2
b11000 p
b11000 r
b1000 7
b1000 h
b1000 k
b1000 n
b1000 q
b100 ?
b100 9
b100 A
b100 g
bx ;
bx U
bx [
bx e
1$
14
#200000
0$
04
#300000
b1 m
b1 <
b1 W
b1 b
b1 '
b1 _
b1 c
b1 i
b1 %
b1 ]
b1 a
b1001 R
b1001 =
b1001 X
b1100 y
b1100 8
b1100 >
b1001000000000000000100 v
b1 1
b1 Z
b1 \
b1 o
b1 Y
b1001 V
b1001 O
b1 D
b1100 3
b1100 s
b1100 u
b111000000010010000000000000001 6
b111000000010010000000000000001 @
b10000 2
b10000 p
b10000 r
b1100 7
b1100 h
b1100 k
b1100 n
b1100 q
b1000 ?
b1000 9
b1000 A
b1000 g
bx ;
bx U
bx [
bx e
1$
14
#400000
0$
04
#500000
b11 m
b11 <
b11 W
b1010 R
b1010 =
b1010 X
b11 b
b11 '
b11 _
b11 c
b11 i
b10 E
b10 &
b10 `
0F
0(
b0 L
b0 /
b0 Q
b1 %
b1 ]
b1 a
b10000 y
b10000 8
b10000 >
b100001001010100000010001000 v
b101000000100010 1
b101000000100010 Z
b101000000100010 \
b101000000100010 o
b101000000100010 Y
b1000 T
b100 :
b100 S
b100 ^
b100 w
b1010 N
b100010 D
b0 C
b10000 3
b10000 s
b10000 u
b1000010010101000000100010 6
b1000010010101000000100010 @
b10100000010011000 2
b10100000010011000 p
b10100000010011000 r
b10000 7
b10000 h
b10000 k
b10000 n
b10000 q
b1100 ?
b1100 9
b1100 A
b1100 g
b1 ;
b1 U
b1 [
b1 e
1$
14
#600000
0$
04
#700000
b101 m
b101 <
b101 W
b101 b
b101 '
b101 _
b101 c
b101 i
b1 E
b1 &
b1 `
b1011 R
b1011 =
b1011 X
b10100 y
b10100 8
b10100 >
b100001001010110000010000000 v
b101100000100000 1
b101100000100000 Z
b101100000100000 \
b101100000100000 o
b101100000100000 Y
b1011 N
b100000 D
b10100 3
b10100 s
b10100 u
b1000010010101100000100000 6
b1000010010101100000100000 @
b10110000010010100 2
b10110000010010100 p
b10110000010010100 r
b10100 7
b10100 h
b10100 k
b10100 n
b10100 q
b10000 ?
b10000 9
b10000 A
b10000 g
1$
14
#800000
0$
04
#900000
b1 m
b1 <
b1 W
b1 b
b1 '
b1 _
b1 c
b1 i
b11 E
b11 &
b11 `
b100 %
b100 ]
b100 a
b1100 R
b1100 =
b1100 X
b11000 y
b11000 8
b11000 >
b100101000011000000010101000 v
b110000000101010 1
b110000000101010 Z
b110000000101010 \
b110000000101010 o
b110000000101010 Y
b1000 V
b100 ;
b100 U
b100 [
b100 e
b1001 T
b1 :
b1 S
b1 ^
b1 w
b1000 O
b1100 N
b101010 D
b11000 3
b11000 s
b11000 u
b1001010000110000000101010 6
b1001010000110000000101010 @
b11000000011000000 2
b11000000011000000 p
b11000000011000000 r
b11000 7
b11000 h
b11000 k
b11000 n
b11000 q
b10100 ?
b10100 9
b10100 A
b10100 g
1$
14
#1000000
0$
04
#1100000
b11100 m
b11100 <
b11100 W
b0 b
1)
b0 '
b0 _
b0 c
b0 i
b0 E
b0 &
b0 `
b1 H
b1 +
b1 x
b10 K
b10 .
b10 l
b10 L
b10 /
b10 Q
b0 %
b0 ]
b0 a
b11111 R
b11111 =
b11111 X
b100100 y
b100100 8
b100100 >
b100100 v
b1001 1
b1001 Z
b1001 \
b1001 o
b1001 Y
b0 V
b0 ;
b0 U
b0 [
b0 e
b0 T
b0 :
b0 S
b0 ^
b0 w
b0 O
b0 N
b1001 D
b11 C
b11100 3
b11100 s
b11100 u
b1100000000000000000000001001 6
b1100000000000000000000001001 @
b1000000 2
b1000000 p
b1000000 r
b11100 7
b11100 h
b11100 k
b11100 n
b11100 q
b11000 ?
b11000 9
b11000 A
b11000 g
1$
14
#1200000
0$
04
#1300000
b11111111111000 b
0)
b11111111111000 '
b11111111111000 _
b11111111111000 c
b11111111111000 i
b11101 R
b11101 =
b11101 X
b0 H
b0 +
b0 x
b10 E
b10 &
b10 `
b0 K
b0 .
b0 l
b0 L
b0 /
b0 Q
b100 %
b100 ]
b100 a
b101000 y
b101000 8
b101000 >
b1110101000111010000010001000 v
b11111111111111111110100000100010 1
b11111111111111111110100000100010 Z
b11111111111111111110100000100010 \
b11111111111111111110100000100010 o
b1110100000100010 Y
b1000 V
b100 ;
b100 U
b100 [
b100 e
b11101 T
b11111111111100 :
b11111111111100 S
b11111111111100 ^
b11111111111100 w
b1000 O
b11101 N
b100010 D
b0 C
b101000 3
b101000 s
b101000 u
b11111111111000 m
b11111111111000 <
b11111111111000 W
b11101010001110100000100010 6
b11101010001110100000100010 @
b11111111111111111010000010110000 2
b11111111111111111010000010110000 p
b11111111111111111010000010110000 r
b101000 7
b101000 h
b101000 k
b101000 n
b101000 q
b100100 ?
b100100 9
b100100 A
b100100 g
1$
14
#1400000
0$
04
#1500000
b101100 y
b101100 8
b101100 >
b101100 3
b101100 s
b101100 u
b11111111110100 m
b11111111110100 <
b11111111110100 W
b11111111111111111010000010110100 2
b11111111111111111010000010110100 p
b11111111111111111010000010110100 r
b101100 7
b101100 h
b101100 k
b101100 n
b101100 q
b11111111110100 b
b11111111110100 '
b11111111110100 _
b11111111110100 c
b11111111110100 i
b101000 ?
b101000 9
b101000 A
b101000 g
b11111111111000 :
b11111111111000 S
b11111111111000 ^
b11111111111000 w
1$
14
#1600000
0$
04
#1700000
b0 %
b0 ]
b0 a
b1 E
b1 &
b1 `
1J
1-
1F
1(
0M
00
b0 R
b0 =
b0 X
b110000 y
b110000 8
b110000 >
b1110101000000000000000000000 v
b0 1
b0 Z
b0 \
b0 o
b0 Y
b0 N
b0 D
b101011 C
b110000 3
b110000 s
b110000 u
b11111111110100 m
b11111111110100 <
b11111111110100 W
b10101111101010000000000000000000 6
b10101111101010000000000000000000 @
b110000 2
b110000 p
b110000 r
b110000 7
b110000 h
b110000 k
b110000 n
b110000 q
b11111111110100 b
b11111111110100 '
b11111111110100 _
b11111111110100 c
b11111111110100 i
b101100 ?
b101100 9
b101100 A
b101100 g
b11111111110100 :
b11111111110100 S
b11111111110100 ^
b11111111110100 w
1$
14
#1800000
0$
04
#1900000
b11111111111000 m
b11111111111000 <
b11111111111000 W
b11111111111000 b
b11111111111000 '
b11111111111000 _
b11111111111000 c
b11111111111000 i
b100 %
b100 ]
b100 a
b110100 y
b110100 8
b110100 >
b1110101001000000000000010000 v
b100 1
b100 Z
b100 \
b100 o
b100 Y
b1001 V
b1 ;
b1 U
b1 [
b1 e
b1001 O
b100 D
b110100 3
b110100 s
b110100 u
b10101111101010010000000000000100 6
b10101111101010010000000000000100 @
b1000100 2
b1000100 p
b1000100 r
b110100 7
b110100 h
b110100 k
b110100 n
b110100 q
b110000 ?
b110000 9
b110000 A
b110000 g
1$
14
#2000000
0$
04
#2100000
b100 f
b100 5
b100 d
b100 j
b100 m
b100 <
b100 W
b11111111110100 b
b11111111110100 '
b11111111110100 _
b11111111110100 c
b11111111110100 i
b1 K
b1 .
b1 l
1I
1,
0J
0-
1M
10
b0 %
b0 ]
b0 a
b111000 y
b111000 8
b111000 >
b1110101101000000000000000000 v
b0 1
b0 Z
b0 \
b0 o
b0 Y
b1101 V
bx ;
bx U
bx [
bx e
b1101 O
b0 D
b100011 C
b111000 3
b111000 s
b111000 u
b10001111101011010000000000000000 6
b10001111101011010000000000000000 @
b111000 2
b111000 p
b111000 r
b111000 7
b111000 h
b111000 k
b111000 n
b111000 q
b110100 ?
b110100 9
b110100 A
b110100 g
1$
14
#2200000
0$
04
#2300000
b1 m
b1 <
b1 W
b1 f
b1 5
b1 d
b1 j
b11111111111000 b
b11111111111000 '
b11111111111000 _
b11111111111000 c
b11111111111000 i
b100 %
b100 ]
b100 a
b111100 y
b111100 8
b111100 >
b1110101110000000000000010000 v
b100 1
b100 Z
b100 \
b100 o
b100 Y
b1110 V
b1110 O
b100 D
b111100 3
b111100 s
b111100 u
b10001111101011100000000000000100 6
b10001111101011100000000000000100 @
b1001100 2
b1001100 p
b1001100 r
b111100 7
b111100 h
b111100 k
b111100 n
b111100 q
b111000 ?
b111000 9
b111000 A
b111000 g
1$
14
#2400000
0$
04
#2500000
b11111111111000 m
b11111111111000 <
b11111111111000 W
b11111111111000 b
b11111111111000 '
b11111111111000 _
b11111111111000 c
b11111111111000 i
b0 K
b0 .
b0 l
0I
0,
0F
0(
b100 %
b100 ]
b100 a
b11101 R
b11101 =
b11101 X
b1000000 y
b1000000 8
b1000000 >
b1110101000111010000010000000 v
b11111111111111111110100000100000 1
b11111111111111111110100000100000 Z
b11111111111111111110100000100000 \
b11111111111111111110100000100000 o
b1110100000100000 Y
b1000 V
b100 ;
b100 U
b100 [
b100 e
b1000 O
b11101 N
b100000 D
b0 C
b1000000 3
b1000000 s
b1000000 u
b11101010001110100000100000 6
b11101010001110100000100000 @
b11111111111111111010000011000000 2
b11111111111111111010000011000000 p
b11111111111111111010000011000000 r
b1000000 7
b1000000 h
b1000000 k
b1000000 n
b1000000 q
b111100 ?
b111100 9
b111100 A
b111100 g
1$
14
#2600000
0$
04
#2700000
b1000100 y
b1000100 8
b1000100 >
b1000100 3
b1000100 s
b1000100 u
b11111111111100 m
b11111111111100 <
b11111111111100 W
b11111111111111111010000011000100 2
b11111111111111111010000011000100 p
b11111111111111111010000011000100 r
b1000100 7
b1000100 h
b1000100 k
b1000100 n
b1000100 q
b11111111111100 b
b11111111111100 '
b11111111111100 _
b11111111111100 c
b11111111111100 i
b1000000 ?
b1000000 9
b1000000 A
b1000000 g
b11111111111000 :
b11111111111000 S
b11111111111000 ^
b11111111111000 w
1$
14
#2800000
0$
04
#2900000
1)
b0 E
b0 &
b0 `
b10 H
b10 +
b10 x
b1 %
b1 ]
b1 a
b0 R
b0 =
b0 X
b11100 y
b11100 8
b11100 >
b1111100000000000000000100000 v
b1000 1
b1000 Z
b1000 \
b1000 o
b1000 Y
b0 V
b1 ;
b1 U
b1 [
b1 e
b11111 T
b0 O
b0 N
b1000 D
b1001000 3
b1001000 s
b1001000 u
b0 m
b0 <
b0 W
b11111000000000000000001000 6
b11111000000000000000001000 @
b1101000 2
b1101000 p
b1101000 r
b1001000 7
b1001000 h
b1001000 k
b1001000 n
b1001000 q
b0 b
b0 '
b0 _
b0 c
b0 i
b1000100 ?
b1000100 9
b1000100 A
b1000100 g
b11100 :
b11100 S
b11100 ^
b11100 w
1$
14
#3000000
0$
04
#3100000
1t
b11 m
b11 <
b11 W
b11 b
0)
b11 '
b11 _
b11 c
b11 i
b10 E
b10 &
b10 `
b0 H
b0 +
b0 x
1G
1*
0M
00
b1001000 y
b1001000 8
b1001000 >
b100001001000000000000101000 v
b1010 1
b1010 Z
b1010 \
b1010 o
b1010 Y
b1001 V
b1000 T
b100 :
b100 S
b100 ^
b100 w
b1001 O
b1010 D
b101 C
b1001000 3
b1001000 s
b1001000 u
b10101000010010000000000001010 6
b10101000010010000000000001010 @
b1001000 2
b1001000 p
b1001000 r
b100000 7
b100000 h
b100000 k
b100000 n
b100000 q
b11100 ?
b11100 9
b11100 A
b11100 g
b1 %
b1 ]
b1 a
b1 ;
b1 U
b1 [
b1 e
1$
14
#3200000
0$
04
#3300000
0t
0G
0*
1M
10
b1000 R
b1000 =
b1000 X
b1001100 y
b1001100 8
b1001100 >
b100001001010000000010001000 v
b100000000100010 1
b100000000100010 Z
b100000000100010 \
b100000000100010 o
b100000000100010 Y
b1000 N
b100010 D
b0 C
b1001100 3
b1001100 s
b1001100 u
b1000010010100000000100010 6
b1000010010100000000100010 @
b10000000011010100 2
b10000000011010100 p
b10000000011010100 r
b1001100 7
b1001100 h
b1001100 k
b1001100 n
b1001100 q
b1001000 ?
b1001000 9
b1001000 A
b1001000 g
1$
14
#3400000
0$
04
#3500000
1)
b0 E
b0 &
b0 `
b10 H
b10 +
b10 x
b0 %
b0 ]
b0 a
b0 R
b0 =
b0 X
b11100 y
b11100 8
b11100 >
b1111100000000000000000100000 v
b1000 1
b1000 Z
b1000 \
b1000 o
b1000 Y
b0 V
b0 ;
b0 U
b0 [
b0 e
b11111 T
b0 O
b0 N
b1000 D
b1010000 3
b1010000 s
b1010000 u
b0 m
b0 <
b0 W
b11111000000000000000001000 6
b11111000000000000000001000 @
b1110000 2
b1110000 p
b1110000 r
b1010000 7
b1010000 h
b1010000 k
b1010000 n
b1010000 q
b0 b
b0 '
b0 _
b0 c
b0 i
b1001100 ?
b1001100 9
b1001100 A
b1001100 g
b11100 :
b11100 S
b11100 ^
b11100 w
1$
14
#3600000
0$
04
#3700000
1t
b10 m
b10 <
b10 W
b10 b
0)
b10 '
b10 _
b10 c
b10 i
b10 E
b10 &
b10 `
b0 H
b0 +
b0 x
1G
1*
0M
00
b1 %
b1 ]
b1 a
b1001000 y
b1001000 8
b1001000 >
b100001001000000000000101000 v
b1010 1
b1010 Z
b1010 \
b1010 o
b1010 Y
b1001 V
b1 ;
b1 U
b1 [
b1 e
b1000 T
b11 :
b11 S
b11 ^
b11 w
b1001 O
b1010 D
b101 C
b1001000 3
b1001000 s
b1001000 u
b10101000010010000000000001010 6
b10101000010010000000000001010 @
b1001000 2
b1001000 p
b1001000 r
b100000 7
b100000 h
b100000 k
b100000 n
b100000 q
b11100 ?
b11100 9
b11100 A
b11100 g
1$
14
#3800000
0$
04
#3900000
0t
0G
0*
1M
10
b1000 R
b1000 =
b1000 X
b1001100 y
b1001100 8
b1001100 >
b100001001010000000010001000 v
b100000000100010 1
b100000000100010 Z
b100000000100010 \
b100000000100010 o
b100000000100010 Y
b1000 N
b100010 D
b0 C
b1001100 3
b1001100 s
b1001100 u
b1000010010100000000100010 6
b1000010010100000000100010 @
b10000000011010100 2
b10000000011010100 p
b10000000011010100 r
b1001100 7
b1001100 h
b1001100 k
b1001100 n
b1001100 q
b1001000 ?
b1001000 9
b1001000 A
b1001000 g
1$
14
#4000000
0$
04
#4100000
1)
b0 E
b0 &
b0 `
b10 H
b10 +
b10 x
b0 %
b0 ]
b0 a
b0 R
b0 =
b0 X
b11100 y
b11100 8
b11100 >
b1111100000000000000000100000 v
b1000 1
b1000 Z
b1000 \
b1000 o
b1000 Y
b0 V
b0 ;
b0 U
b0 [
b0 e
b11111 T
b0 O
b0 N
b1000 D
b1010000 3
b1010000 s
b1010000 u
b0 m
b0 <
b0 W
b11111000000000000000001000 6
b11111000000000000000001000 @
b1110000 2
b1110000 p
b1110000 r
b1010000 7
b1010000 h
b1010000 k
b1010000 n
b1010000 q
b0 b
b0 '
b0 _
b0 c
b0 i
b1001100 ?
b1001100 9
b1001100 A
b1001100 g
b11100 :
b11100 S
b11100 ^
b11100 w
1$
14
#4200000
0$
04
#4300000
1t
b1 m
b1 <
b1 W
b1 b
0)
b1 '
b1 _
b1 c
b1 i
b10 E
b10 &
b10 `
b0 H
b0 +
b0 x
1G
1*
0M
00
b1 %
b1 ]
b1 a
b1001000 y
b1001000 8
b1001000 >
b100001001000000000000101000 v
b1010 1
b1010 Z
b1010 \
b1010 o
b1010 Y
b1001 V
b1 ;
b1 U
b1 [
b1 e
b1000 T
b10 :
b10 S
b10 ^
b10 w
b1001 O
b1010 D
b101 C
b1001000 3
b1001000 s
b1001000 u
b10101000010010000000000001010 6
b10101000010010000000000001010 @
b1001000 2
b1001000 p
b1001000 r
b100000 7
b100000 h
b100000 k
b100000 n
b100000 q
b11100 ?
b11100 9
b11100 A
b11100 g
1$
14
#4400000
0$
04
#4500000
0t
0G
0*
1M
10
b1000 R
b1000 =
b1000 X
b1001100 y
b1001100 8
b1001100 >
b100001001010000000010001000 v
b100000000100010 1
b100000000100010 Z
b100000000100010 \
b100000000100010 o
b100000000100010 Y
b1000 N
b100010 D
b0 C
b1001100 3
b1001100 s
b1001100 u
b1000010010100000000100010 6
b1000010010100000000100010 @
b10000000011010100 2
b10000000011010100 p
b10000000011010100 r
b1001100 7
b1001100 h
b1001100 k
b1001100 n
b1001100 q
b1001000 ?
b1001000 9
b1001000 A
b1001000 g
1$
14
#4600000
0$
04
#4700000
b0 E
b0 &
b0 `
b10 H
b10 +
b10 x
b0 %
b0 ]
b0 a
b0 R
b0 =
b0 X
b11100 y
b11100 8
b11100 >
b1111100000000000000000100000 v
b1000 1
b1000 Z
b1000 \
b1000 o
b1000 Y
b0 V
b0 ;
b0 U
b0 [
b0 e
b11111 T
b0 O
b0 N
b1000 D
b1010000 3
b1010000 s
b1010000 u
b0 m
b0 <
b0 W
b11111000000000000000001000 6
b11111000000000000000001000 @
b1110000 2
b1110000 p
b1110000 r
b1010000 7
b1010000 h
b1010000 k
b1010000 n
b1010000 q
b0 b
1)
b0 '
b0 _
b0 c
b0 i
b1001100 ?
b1001100 9
b1001100 A
b1001100 g
b11100 :
b11100 S
b11100 ^
b11100 w
1$
14
#4800000
0$
04
#4900000
b10 E
b10 &
b10 `
b0 H
b0 +
b0 x
1G
1*
0M
00
b1 %
b1 ]
b1 a
b100000 y
b100000 8
b100000 >
b100001001000000000000101000 v
b1010 1
b1010 Z
b1010 \
b1010 o
b1010 Y
b1001 V
b1 ;
b1 U
b1 [
b1 e
b1000 T
b1 :
b1 S
b1 ^
b1 w
b1001 O
b1010 D
b101 C
b100000 3
b100000 s
b100000 u
b10101000010010000000000001010 6
b10101000010010000000000001010 @
b1001000 2
b1001000 p
b1001000 r
b100000 7
b100000 h
b100000 k
b100000 n
b100000 q
b11100 ?
b11100 9
b11100 A
b11100 g
1$
14
#5000000
0$
04
#5100000
b0 b
1)
b0 '
b0 _
b0 c
b0 i
b0 E
b0 &
b0 `
b1 H
b1 +
b1 x
0G
0*
b0 %
b0 ]
b0 a
b1010000 y
b1010000 8
b1010000 >
b1010000 v
b10100 1
b10100 Z
b10100 \
b10100 o
b10100 Y
b0 V
b0 ;
b0 U
b0 [
b0 e
b0 T
b0 :
b0 S
b0 ^
b0 w
b0 O
b10100 D
b10 C
b100100 3
b100100 s
b100100 u
b1000000000000000000000010100 6
b1000000000000000000000010100 @
b1110100 2
b1110100 p
b1110100 r
b100100 7
b100100 h
b100100 k
b100100 n
b100100 q
b100000 ?
b100000 9
b100000 A
b100000 g
1$
14
#5200000
0$
04
#5300000
b1010100 3
b1010100 s
b1010100 u
b10100100 2
b10100100 p
b10100100 r
b1010100 7
b1010100 h
b1010100 k
b1010100 n
b1010100 q
b1010000 ?
b1010000 9
b1010000 A
b1010000 g
1$
14
